"personcontactid","sin","firstname","lastname","salary","dateofhire","dateoftermination"
4,"123456776","Gary","Wsward",100000.00,"2010-03-04",NULL
5,"223456778","May","Fifty",120000.00,"2000-04-06",NULL
6,"123456790","Katie","Parent",80000.00,"2016-05-08",NULL
7,"123456780","Ada","Ehi",60000.00,"2019-06-10",NULL
45,"423456778","Stephane","Villeneuve",80000.00,"2019-06-12",NULL
46,"123456782","Miranda","Corbett",100000.00,"2019-06-14",NULL
47,"623456778","Brent","Olsen",120000.00,"2019-06-16",NULL
48,"123456784","Kenneth","Adkin",140000.00,"2019-06-18",NULL
49,"823456786","David","Bickerton",160000.00,"2019-06-20",NULL
50,"123456786","Max","Wong",180000.00,"2019-06-22",NULL
51,"123456788","Warren","Schappert",200000.00,"2019-06-24",NULL
52,"123456792","Peter","Lo",220000.00,"2019-06-26",NULL
53,"123456794","Joyce","Meyer",240000.00,"2019-06-28",NULL
54,"123456796","Jenkin","Hui",260000.00,"2019-06-30",NULL
55,"123456798","Justine","Young",82000.00,"2019-07-12",NULL
56,"123456800","Saleem","Cheeks",102000.00,"2019-07-14",NULL
57,"123456802","Victoria","Gibson",104000.00,"2019-07-16",NULL
58,"123456804","Simon","Hébert",106000.00,"2019-07-18",NULL
59,"123456806","Kirsten","Hanes",108000.00,"2019-07-20",NULL
60,"123456808","May","Ho",128000.00,"2019-07-22",NULL
61,"123456810","Susana","Wong",128002.00,"2019-07-24",NULL
62,"123456813","Kim","Widenmeier",128004.00,"2019-07-26",NULL
63,"123456816","Nikki","Farquhar-Morton",28004.00,"2018-07-26",NULL
64,"123456818","Sandy","Jay",28006.00,"2018-07-28",NULL
65,"123456830","Peggy","Brule",28008.00,"2018-07-30",NULL
66,"123456832","Sara","Adkins",28008.00,"2018-08-30",NULL
67,"123456834","Tanya","Laughlin",28008.00,"2018-09-02",NULL
68,"123456836","Johanna","Marie",28008.00,"2018-09-04",NULL
69,"123456838","Kara","McCarville",28020.00,"2018-09-06",NULL
70,"123456840","Ingrid","Wildman-Friesen",28022.00,"2018-09-08",NULL
71,"123456842","Missy","Marie",28024.00,"2018-09-10",NULL
72,"123456844","Bradley","Schoenherr",28026.00,"2018-09-12",NULL
73,"123456846","Rick","Aiken",88026.00,"2018-09-14",NULL
74,"123456848","Megan Ashlee","Bowes",128909.06,"2017-09-14",NULL
75,"123456850","Kat","Dickinson",28909.06,"2017-10-14",NULL
76,"123456852","Nancy","Fore",28909.08,"2017-10-16",NULL
77,"123456854","Ballari","Mukherjee",28909.10,"2017-10-18",NULL
78,"123456856","Cassandra","Larocque",28909.12,"2017-10-20",NULL
79,"123456858","Mandy","Ledain",128909.12,"2017-11-20",NULL
80,"123456860","Briana","Cosgrove-Boire",148909.12,"2017-11-22",NULL
81,"123456862","Norina","Fida",48909.12,"2017-11-24",NULL
82,"123456864","Zainab","Abdurrahman",46909.12,"2017-11-26",NULL
83,"123456866","Frank","Friesen",46929.12,"2017-11-28",NULL
84,"123456868","Emmi","Driedger",46949.12,"2017-11-30",NULL
85,"123456870","Magriet","du Plooy",146909.12,"2017-12-01",NULL
86,"123456872","Waleed","Masoud",166909.12,"2016-11-26",NULL
87,"123456874","Tally Michelle","Mogus",166920.12,"2016-11-28",NULL
88,"123456876","Katie","Soper",166922.12,"2016-11-30",NULL
89,"123456878","Ellie Elizabeth","Vyver",66909.12,"2016-12-02",NULL
90,"123456880","Ken","Alanen",46909.12,"2016-12-04",NULL
91,"123456882","Karl","Anders",46909.14,"2016-12-06",NULL
92,"123456884","Iwona","Auer",46909.16,"2016-12-08",NULL
93,"223456884","Terek","Bismar",146909.16,"2016-12-10",NULL
94,"123456886","Eric Gerald","Bol",66909.16,"2016-12-12",NULL
95,"123456888","Thomas","Brenn",86909.16,"2016-12-14",NULL
96,"123456890","Maire A.","Duggan",88909.16,"2016-12-16","2018-01-18"
97,"123456892","Steve","Gorombey",46909.16,"2016-12-18",NULL
98,"123456894","Karen M","Huhn",66909.16,"2016-12-20",NULL
99,"123456896","Inderman H.","Jadusingh",66909.20,"2018-12-22",NULL
100,"123456898","Wanda M","Lester",66909.40,"2018-12-23",NULL
101,"123458000","Alfredo","Pinto-Rojas",166909.16,"2018-12-24",NULL
102,"123458002","Ranjit","Waghray",146909.16,"2016-01-20","2018-01-20"
